{
  "files": {
    "main.css": "/xr/android/static/css/main.c26193f5.chunk.css",
    "main.js": "/xr/android/static/js/main.981a017c.chunk.js",
    "main.js.map": "/xr/android/static/js/main.981a017c.chunk.js.map",
    "runtime-main.js": "/xr/android/static/js/runtime-main.d2a5388b.js",
    "runtime-main.js.map": "/xr/android/static/js/runtime-main.d2a5388b.js.map",
    "static/js/2.0c2cf6c9.chunk.js": "/xr/android/static/js/2.0c2cf6c9.chunk.js",
    "static/js/2.0c2cf6c9.chunk.js.map": "/xr/android/static/js/2.0c2cf6c9.chunk.js.map",
    "index.html": "/xr/android/index.html",
    "precache-manifest.df551211c842ffd0b0e94e541ada308f.js": "/xr/android/precache-manifest.df551211c842ffd0b0e94e541ada308f.js",
    "service-worker.js": "/xr/android/service-worker.js",
    "static/css/main.c26193f5.chunk.css.map": "/xr/android/static/css/main.c26193f5.chunk.css.map",
    "static/js/2.0c2cf6c9.chunk.js.LICENSE.txt": "/xr/android/static/js/2.0c2cf6c9.chunk.js.LICENSE.txt"
  },
  "entrypoints": [
    "static/js/runtime-main.d2a5388b.js",
    "static/js/2.0c2cf6c9.chunk.js",
    "static/css/main.c26193f5.chunk.css",
    "static/js/main.981a017c.chunk.js"
  ]
}